<?xml version="1.0" encoding="UTF-8"?>
<glyph name="Ograve" format="1">
  <advance width="712"/>
  <unicode hex="00D2"/>
  <outline>
    <contour>
      <point x="432" y="688" type="line"/>
      <point x="217" y="716" type="line"/>
      <point x="246" y="833" type="line"/>
      <point x="448" y="745" type="line"/>
    </contour>
    <contour>
      <point x="688" y="326" type="curve" smooth="yes"/>
      <point x="688" y="142"/>
      <point x="564" y="-10"/>
      <point x="353" y="-10" type="curve" smooth="yes"/>
      <point x="141" y="-10"/>
      <point x="24" y="143"/>
      <point x="24" y="324" type="curve" smooth="yes"/>
      <point x="24" y="514"/>
      <point x="153" y="660"/>
      <point x="357" y="660" type="curve" smooth="yes"/>
      <point x="565" y="660"/>
      <point x="688" y="509"/>
    </contour>
    <contour>
      <point x="543" y="322" type="curve" smooth="yes"/>
      <point x="543" y="460"/>
      <point x="477" y="542"/>
      <point x="356" y="542" type="curve" smooth="yes"/>
      <point x="227" y="542"/>
      <point x="169" y="450"/>
      <point x="169" y="327" type="curve" smooth="yes"/>
      <point x="169" y="209"/>
      <point x="223" y="108"/>
      <point x="360" y="108" type="curve" smooth="yes"/>
      <point x="487" y="108"/>
      <point x="543" y="195"/>
    </contour>
    <contour>
      <point x="-10" y="-213" type="line"/>
      <point x="722" y="-213" type="line"/>
      <point x="722" y="917" type="line"/>
      <point x="-10" y="917" type="line"/>
    </contour>
  </outline>
  <lib>
    <dict>
      <key>com.schriftgestaltung.Glyphs.lastChange</key>
      <string>2017-05-12 10:32:23 +0000</string>
    </dict>
  </lib>
</glyph>
