<?xml version="1.0" encoding="UTF-8"?>
<glyph name="dollar.pnum_lnum" format="1">
  <advance width="529"/>
  <outline>
    <contour>
      <point x="-12" y="-213" type="line"/>
      <point x="541" y="-213" type="line"/>
      <point x="541" y="917" type="line"/>
      <point x="-12" y="917" type="line"/>
    </contour>
    <contour>
      <point x="488" y="182" type="curve" smooth="yes"/>
      <point x="488" y="67"/>
      <point x="403" y="1"/>
      <point x="287" y="-9" type="curve"/>
      <point x="287" y="-81" type="line"/>
      <point x="242" y="-81" type="line"/>
      <point x="242" y="-10" type="line"/>
      <point x="160" y="-7"/>
      <point x="88" y="13"/>
      <point x="47" y="43" type="curve"/>
      <point x="61" y="171" type="line"/>
      <point x="121" y="165" type="line"/>
      <point x="117" y="83" type="line"/>
      <point x="156" y="63"/>
      <point x="198" y="55"/>
      <point x="242" y="54" type="curve"/>
      <point x="242" y="309" type="line"/>
      <point x="151" y="328"/>
      <point x="51" y="354"/>
      <point x="51" y="480" type="curve" smooth="yes"/>
      <point x="51" y="596"/>
      <point x="136" y="655"/>
      <point x="242" y="660" type="curve"/>
      <point x="242" y="739" type="line"/>
      <point x="287" y="739" type="line"/>
      <point x="287" y="659" type="line"/>
      <point x="351" y="653"/>
      <point x="417" y="634"/>
      <point x="453" y="606" type="curve"/>
      <point x="459" y="477" type="line"/>
      <point x="399" y="471" type="line"/>
      <point x="389" y="568" type="line"/>
      <point x="355" y="585"/>
      <point x="319" y="592"/>
      <point x="287" y="594" type="curve"/>
      <point x="287" y="369" type="line"/>
      <point x="373" y="350"/>
      <point x="488" y="323"/>
    </contour>
    <contour>
      <point x="409" y="175" type="curve" smooth="yes"/>
      <point x="409" y="257"/>
      <point x="351" y="282"/>
      <point x="287" y="298" type="curve"/>
      <point x="287" y="56" type="line"/>
      <point x="356" y="63"/>
      <point x="409" y="98"/>
    </contour>
    <contour>
      <point x="129" y="488" type="curve" smooth="yes"/>
      <point x="129" y="418"/>
      <point x="181" y="396"/>
      <point x="242" y="380" type="curve"/>
      <point x="242" y="594" type="line"/>
      <point x="173" y="588"/>
      <point x="129" y="551"/>
    </contour>
  </outline>
  <lib>
    <dict>
      <key>com.schriftgestaltung.Glyphs.lastChange</key>
      <string>2017-05-12 10:32:23 +0000</string>
    </dict>
  </lib>
</glyph>
