<?xml version="1.0" encoding="UTF-8"?>
<glyph name="colon" format="1">
  <advance width="227"/>
  <unicode hex="003A"/>
  <outline>
    <contour>
      <point x="87" y="447" type="line"/>
      <point x="189" y="447" type="line"/>
      <point x="176" y="328" type="line"/>
      <point x="73" y="328" type="line"/>
    </contour>
    <contour>
      <point x="51" y="118" type="line"/>
      <point x="153" y="118" type="line"/>
      <point x="140" y="0" type="line"/>
      <point x="37" y="0" type="line"/>
    </contour>
  </outline>
  <lib>
    <dict>
      <key>com.schriftgestaltung.Glyphs.lastChange</key>
      <string>2017-05-12 10:32:22 +0000</string>
    </dict>
  </lib>
</glyph>
