<?xml version="1.0" encoding="UTF-8"?>
<glyph name="tilde" format="1">
  <advance width="367"/>
  <unicode hex="02DC"/>
  <outline>
    <contour>
      <point x="139" y="515" type="line"/>
      <point x="150" y="544"/>
      <point x="166" y="558"/>
      <point x="188" y="558" type="curve" smooth="yes"/>
      <point x="227" y="558"/>
      <point x="257" y="517"/>
      <point x="307" y="517" type="curve" smooth="yes"/>
      <point x="372" y="517"/>
      <point x="395" y="589"/>
      <point x="401" y="647" type="curve"/>
      <point x="349" y="658" type="line"/>
      <point x="337" y="629"/>
      <point x="318" y="617"/>
      <point x="299" y="617" type="curve" smooth="yes"/>
      <point x="266" y="617"/>
      <point x="233" y="655"/>
      <point x="189" y="655" type="curve" smooth="yes"/>
      <point x="124" y="655"/>
      <point x="93" y="569"/>
      <point x="92" y="531" type="curve"/>
    </contour>
  </outline>
  <lib>
    <dict>
      <key>com.schriftgestaltung.Glyphs.lastChange</key>
      <string>2017-05-12 10:32:21 +0000</string>
    </dict>
  </lib>
</glyph>
